<?xml version="1.0" encoding="UTF-8"?>
<svg width="28px" height="20px" viewBox="0 0 28 20" version="1.1" xmlns="http://www.w3.org/2000/svg" xmlns:xlink="http://www.w3.org/1999/xlink">
    <title>Combined Shape</title>
    <g id="Page-1" stroke="none" stroke-width="1" fill="none" fill-rule="evenodd">
        <g id="Skanska-Brand-Hub---Images---Desktop" transform="translate(-1298.000000, -396.000000)" fill="#143275">
            <g id="CLEARSPACE-Copy-3" transform="translate(49.000000, 50.000000)">
                <g id="Group-30" transform="translate(1.000000, 140.000000)">
                    <g id="Group-29" transform="translate(780.000000, 108.000000)">
                        <g id="Group-16" transform="translate(468.000045, 97.000000)">
                            <g id="Group-9-Copy" transform="translate(0.000000, 1.000022)">
                                <path d="M13.8799554,5.01253133 C17.7489613,5.01253133 20.8974993,8.16106934 20.8974993,12.0300752 C20.8974993,15.899081 17.7489613,19.047619 13.8799554,19.047619 C10.0109496,19.047619 6.86241158,15.899081 6.86241158,12.0300752 C6.86241158,8.16106934 10.0109496,5.01253133 13.8799554,5.01253133 Z M13.8799554,7.01754386 C11.1161571,7.01754386 8.86742412,9.2662768 8.86742412,12.0300752 C8.86742412,14.7938736 11.1161571,17.0426065 13.8799554,17.0426065 C16.6437538,17.0426065 18.8924868,14.7938736 18.8924868,12.0300752 C18.8924868,9.2662768 16.6437538,7.01754386 13.8799554,7.01754386 Z M13.9516346,9.88147034 C15.0986132,9.88147034 16.0283821,10.8112392 16.0283821,11.9581064 C16.0283821,13.1049735 15.0986132,14.0347424 13.9516346,14.0347424 C12.8047675,14.0347424 11.8749986,13.1049735 11.8749986,11.9581064 C11.8749986,10.8112392 12.8047675,9.88147034 13.9516346,9.88147034 Z M13.8672236,0 C21.0508493,0 26.9449179,5.34948482 27.7355611,12.3639098 L27.7355611,12.3639098 L25.7194096,12.3639098 C24.9421331,6.46984127 19.9417432,2.00501253 13.8672236,2.00501253 C7.79270398,2.00501253 2.79320524,6.46984127 2.01592871,12.3639098 L2.01592871,12.3639098 L0,12.3639098 C0.790420496,5.34948482 6.68359788,0 13.8672236,0 Z" id="Combined-Shape"></path>
                            </g>
                        </g>
                    </g>
                </g>
            </g>
        </g>
    </g>
</svg>