<?xml version="1.0" encoding="UTF-8"?>
<svg width="1196px" height="673px" viewBox="0 0 1196 673" version="1.1" xmlns="http://www.w3.org/2000/svg" xmlns:xlink="http://www.w3.org/1999/xlink">
    <title>Group 4</title>
    <g id="Page-1" stroke="none" stroke-width="1" fill="none" fill-rule="evenodd">
        <g id="Versions" transform="translate(-50.000000, -838.000000)">
            <g id="Group-4" transform="translate(50.000000, 838.000000)">
                <polygon id="Fill-1" fill="#143275" points="0 673 1196 673 1196 0 0 0"></polygon>
                <path d="M921.145811,347.816175 L950.253474,347.816175 L935.613714,303.219464 L921.145811,347.816175 Z M965.91338,395.647183 L958.082927,371.64725 L913.486216,371.64725 L905.655763,395.647183 L877.22953,395.647183 L918.422089,278.197385 L952.976197,278.197385 L994.168755,395.647183 L965.91338,395.647183 Z M843.52671,278.197385 L875.527953,278.197385 L830.420668,336.070996 L875.527953,395.647183 L842.335706,395.647183 L805.397591,346.625171 L805.397591,395.647183 L778.163362,395.647183 L778.163362,278.197385 L805.397591,278.197385 L805.397591,327.391253 L843.52671,278.197385 Z M726.24677,324.325816 C748.88684,324.325816 762.84417,337.093141 762.84417,359.731213 C762.84417,382.200426 748.88684,395.647183 726.24677,395.647183 L667.522871,395.647183 L667.522871,370.794962 L725.908053,370.794962 C733.56665,370.794962 737.482376,365.348516 737.482376,359.731213 C737.482376,354.114909 733.56665,348.668463 725.908053,348.668463 L699.353256,348.668463 C676.714185,348.668463 662.756855,335.560423 662.756855,313.773639 C662.756855,291.474284 676.714185,278.197385 699.353256,278.197385 L754.674002,278.197385 L754.674002,303.048607 L699.693972,303.048607 C692.034376,303.048607 688.11865,308.327193 688.11865,313.773639 C688.11865,319.049228 692.034376,324.325816 699.693972,324.325816 L726.24677,324.325816 Z M619.18129,351.561044 L619.18129,278.197385 L646.415519,278.197385 L646.415519,395.647183 L618.160144,395.647183 L571.52014,322.113666 L571.52014,395.647183 L544.284912,395.647183 L544.284912,278.197385 L572.541287,278.197385 L619.18129,351.561044 Z M461.219365,347.816175 L490.327028,347.816175 L475.688267,303.219464 L461.219365,347.816175 Z M458.496642,278.197385 L493.049751,278.197385 L534.242309,395.647183 L505.985935,395.647183 L498.156481,371.64725 L453.55877,371.64725 L445.730316,395.647183 L417.304084,395.647183 L458.496642,278.197385 Z M383.601263,278.197385 L415.601507,278.197385 L370.494222,336.070996 L415.601507,395.647183 L382.40926,395.647183 L345.472144,346.625171 L345.472144,395.647183 L318.237915,395.647183 L318.237915,278.197385 L345.472144,278.197385 L345.472144,327.391253 L383.601263,278.197385 Z M266.321323,324.496673 C288.960394,324.496673 302.917724,337.262 302.917724,359.731213 C302.917724,382.200426 288.960394,395.647183 266.321323,395.647183 L207.596424,395.647183 L207.596424,370.625104 L265.980608,370.625104 C273.641203,370.625104 277.55593,365.177659 277.55593,359.731213 C277.55593,354.114909 273.641203,348.668463 265.980608,348.668463 L239.42681,348.668463 C216.787739,348.668463 202.830409,335.560423 202.830409,313.773639 C202.830409,291.474284 216.787739,278.197385 239.42681,278.197385 L294.747556,278.197385 L294.747556,303.219464 L239.767525,303.219464 C232.10793,303.219464 228.193203,308.496052 228.193203,313.773639 C228.193203,319.220085 232.10793,324.496673 239.767525,324.496673 L266.321323,324.496673 Z" id="Fill-2" fill="#FFFFFF"></path>
            </g>
        </g>
    </g>
</svg>