<?xml version="1.0" encoding="UTF-8"?>
<svg width="572px" height="572px" viewBox="0 0 572 572" version="1.1" xmlns="http://www.w3.org/2000/svg" xmlns:xlink="http://www.w3.org/1999/xlink">
    <title>Circular_margin</title>
    <g id="Page-1" stroke="none" stroke-width="1" fill="none" fill-rule="evenodd">
        <g id="Circular_margin">
            <g id="Icons_Grid_BG-Copy" fill="#CCCCCC" fill-rule="nonzero">
                <rect id="Rectangle-Copy-6" x="0" y="0" width="1" height="572"></rect>
                <rect id="Rectangle-Copy-6" x="17.84375" y="0" width="1" height="572"></rect>
                <rect id="Rectangle-Copy-6" x="35.6875" y="0" width="1" height="572"></rect>
                <rect id="Rectangle-Copy-6" x="53.53125" y="0" width="1" height="572"></rect>
                <rect id="Rectangle-Copy-6" x="71.375" y="0" width="1" height="572"></rect>
                <rect id="Rectangle-Copy-6" x="89.21875" y="0" width="1" height="572"></rect>
                <rect id="Rectangle-Copy-6" x="107.0625" y="0" width="1" height="572"></rect>
                <rect id="Rectangle-Copy-6" x="124.90625" y="0" width="1" height="572"></rect>
                <rect id="Rectangle-Copy-6" x="142.75" y="0" width="1" height="572"></rect>
                <rect id="Rectangle-Copy-6" x="160.59375" y="0" width="1" height="572"></rect>
                <rect id="Rectangle-Copy-6" x="178.4375" y="0" width="1" height="572"></rect>
                <rect id="Rectangle-Copy-6" x="196.28125" y="0" width="1" height="572"></rect>
                <rect id="Rectangle-Copy-6" x="214.125" y="0" width="1" height="572"></rect>
                <rect id="Rectangle-Copy-6" x="231.96875" y="0" width="1" height="572"></rect>
                <rect id="Rectangle-Copy-6" x="249.8125" y="0" width="1" height="572"></rect>
                <rect id="Rectangle-Copy-6" x="267.65625" y="0" width="1" height="572"></rect>
                <rect id="Rectangle-Copy-6" x="285.5" y="0" width="1" height="572"></rect>
                <rect id="Rectangle-Copy-6" x="303.34375" y="0" width="1" height="572"></rect>
                <rect id="Rectangle-Copy-6" x="321.1875" y="0" width="1" height="572"></rect>
                <rect id="Rectangle-Copy-6" x="339.03125" y="0" width="1" height="572"></rect>
                <rect id="Rectangle-Copy-6" x="356.875" y="0" width="1" height="572"></rect>
                <rect id="Rectangle-Copy-6" x="374.71875" y="0" width="1" height="572"></rect>
                <rect id="Rectangle-Copy-6" x="392.5625" y="0" width="1" height="572"></rect>
                <rect id="Rectangle-Copy-6" x="410.40625" y="0" width="1" height="572"></rect>
                <rect id="Rectangle-Copy-6" x="428.25" y="0" width="1" height="572"></rect>
                <rect id="Rectangle-Copy-6" x="446.09375" y="0" width="1" height="572"></rect>
                <rect id="Rectangle-Copy-6" x="463.9375" y="0" width="1" height="572"></rect>
                <rect id="Rectangle-Copy-6" x="481.78125" y="0" width="1" height="572"></rect>
                <rect id="Rectangle-Copy-6" x="499.625" y="0" width="1" height="572"></rect>
                <rect id="Rectangle-Copy-6" x="517.46875" y="0" width="1" height="572"></rect>
                <rect id="Rectangle-Copy-6" x="535.3125" y="0" width="1" height="572"></rect>
                <rect id="Rectangle-Copy-6" x="553.15625" y="0" width="1" height="572"></rect>
                <rect id="Rectangle-Copy-7" x="571" y="9.09494702e-13" width="1" height="572"></rect>
                <rect id="Rectangle" x="0" y="0" width="572" height="1"></rect>
                <rect id="Rectangle" x="0" y="17.84375" width="572" height="1"></rect>
                <rect id="Rectangle" x="0" y="35.6875" width="572" height="1"></rect>
                <rect id="Rectangle" x="0" y="53.53125" width="572" height="1"></rect>
                <rect id="Rectangle" x="0" y="71.375" width="572" height="1"></rect>
                <rect id="Rectangle" x="0" y="89.21875" width="572" height="1"></rect>
                <rect id="Rectangle" x="0" y="107.0625" width="572" height="1"></rect>
                <rect id="Rectangle" x="0" y="124.90625" width="572" height="1"></rect>
                <rect id="Rectangle" x="0" y="267.65625" width="572" height="1"></rect>
                <rect id="Rectangle" x="0" y="249.8125" width="572" height="1"></rect>
                <rect id="Rectangle" x="0" y="231.96875" width="572" height="1"></rect>
                <rect id="Rectangle" x="0" y="214.125" width="572" height="1"></rect>
                <rect id="Rectangle" x="0" y="196.28125" width="572" height="1"></rect>
                <rect id="Rectangle" x="0" y="178.4375" width="572" height="1"></rect>
                <rect id="Rectangle" x="0" y="160.59375" width="572" height="1"></rect>
                <rect id="Rectangle" x="0" y="142.75" width="572" height="1"></rect>
                <rect id="Rectangle" x="0" y="428.25" width="572" height="1"></rect>
                <rect id="Rectangle" x="0" y="446.09375" width="572" height="1"></rect>
                <rect id="Rectangle" x="0" y="463.9375" width="572" height="1"></rect>
                <rect id="Rectangle" x="0" y="481.78125" width="572" height="1"></rect>
                <rect id="Rectangle" x="0" y="499.625" width="572" height="1"></rect>
                <rect id="Rectangle" x="0" y="517.46875" width="572" height="1"></rect>
                <rect id="Rectangle" x="0" y="535.3125" width="572" height="1"></rect>
                <rect id="Rectangle" x="0" y="553.15625" width="572" height="1"></rect>
                <rect id="Rectangle" x="0" y="571" width="572" height="1"></rect>
                <rect id="Rectangle" x="0" y="410.40625" width="572" height="1"></rect>
                <rect id="Rectangle" x="0" y="392.5625" width="572" height="1"></rect>
                <rect id="Rectangle" x="0" y="374.71875" width="572" height="1"></rect>
                <rect id="Rectangle" x="0" y="356.875" width="572" height="1"></rect>
                <rect id="Rectangle" x="0" y="339.03125" width="572" height="1"></rect>
                <rect id="Rectangle" x="0" y="321.1875" width="572" height="1"></rect>
                <rect id="Rectangle" x="0" y="303.34375" width="572" height="1"></rect>
                <rect id="Rectangle" x="0" y="285.5" width="572" height="1"></rect>
            </g>
            <g id="Skanska_Icon_World_Margin" transform="translate(54.000000, 54.000000)" stroke="#3DCF7C" stroke-width="1.47803618">
                <path d="M464.838801,232.417613 C464.838801,360.783649 360.786423,464.835226 232.4194,464.835226 C104.052377,464.835226 0,360.783649 0,232.417613 C0,104.051577 104.052377,0 232.4194,0 C360.786423,0 464.838801,104.051577 464.838801,232.417613 Z" id="Margin"></path>
            </g>
            <g id="Skanska_Icon_World" transform="translate(54.000000, 54.000000)" fill="#143275" fill-rule="nonzero">
                <path d="M294.350232,418.941687 C310.262021,376.999246 320.113028,317.16065 321.614815,250.295891 L428.18805,250.295891 C421.018806,329.228488 367.079626,394.734498 294.350232,418.941687 M214.183417,428.166878 C213.504037,426.969033 212.771022,425.985728 212.091643,424.698492 C193.104765,388.441345 180.911686,322.702917 179.141722,250.295891 L285.840106,250.295891 C283.855602,335.289224 267.890177,398.059858 250.762655,428.149 C244.71975,428.721104 238.623211,429.07867 232.419401,429.07867 C226.269226,429.07867 220.190565,428.721104 214.183417,428.166878 M36.6686301,250.295891 L143.384892,250.295891 C144.904558,316.570667 154.666172,376.766829 170.685232,419.0132 C97.8664464,394.859646 43.8199962,329.300001 36.6686301,250.295891 M170.631597,45.8577829 C154.648294,88.0862751 144.904558,148.443342 143.384892,214.539335 L36.6686301,214.539335 C43.8199962,135.570982 97.830689,70.0292146 170.631597,45.8577829 M250.655385,36.6862263 C253.444418,41.5491179 256.179815,46.9126013 258.790063,53.2593899 C274.415798,91.3758782 284.177414,150.731761 285.732835,214.539335 L179.141722,214.539335 C180.893807,143.151372 192.854468,77.8956569 211.430141,41.4418482 C212.34194,39.6540205 213.325253,38.3131496 214.254931,36.6862263 C220.2442,36.1319997 226.287104,35.7565558 232.419401,35.7565558 C238.569576,35.7565558 244.648237,36.1319997 250.655385,36.6862263 M428.18805,214.539335 L321.489667,214.539335 C319.987879,148.568489 310.244143,88.3544493 294.117812,45.8220263 C366.954477,69.9755798 421.018806,135.535225 428.18805,214.539335 M232.419401,0 C104.266919,0 0,104.266117 0,232.417613 C0,360.569109 104.266919,464.835226 232.419401,464.835226 C360.571882,464.835226 464.838802,360.569109 464.838802,232.417613 C464.838802,104.266117 360.571882,0 232.419401,0" id="Fill-1"></path>
            </g>
        </g>
    </g>
</svg>