<?xml version="1.0" encoding="UTF-8"?>
<svg width="572px" height="572px" viewBox="0 0 572 572" version="1.1" xmlns="http://www.w3.org/2000/svg" xmlns:xlink="http://www.w3.org/1999/xlink">
    <title>Landscape</title>
    <g id="Page-1" stroke="none" stroke-width="1" fill="none" fill-rule="evenodd">
        <g id="Landscape" fill-rule="nonzero">
            <g id="Icons_Grid_BG-Copy" fill="#CCCCCC">
                <rect id="Rectangle-Copy-6" x="0" y="0" width="1" height="572"></rect>
                <rect id="Rectangle-Copy-6" x="17.84375" y="0" width="1" height="572"></rect>
                <rect id="Rectangle-Copy-6" x="35.6875" y="0" width="1" height="572"></rect>
                <rect id="Rectangle-Copy-6" x="53.53125" y="0" width="1" height="572"></rect>
                <rect id="Rectangle-Copy-6" x="71.375" y="0" width="1" height="572"></rect>
                <rect id="Rectangle-Copy-6" x="89.21875" y="0" width="1" height="572"></rect>
                <rect id="Rectangle-Copy-6" x="107.0625" y="0" width="1" height="572"></rect>
                <rect id="Rectangle-Copy-6" x="124.90625" y="0" width="1" height="572"></rect>
                <rect id="Rectangle-Copy-6" x="142.75" y="0" width="1" height="572"></rect>
                <rect id="Rectangle-Copy-6" x="160.59375" y="0" width="1" height="572"></rect>
                <rect id="Rectangle-Copy-6" x="178.4375" y="0" width="1" height="572"></rect>
                <rect id="Rectangle-Copy-6" x="196.28125" y="0" width="1" height="572"></rect>
                <rect id="Rectangle-Copy-6" x="214.125" y="0" width="1" height="572"></rect>
                <rect id="Rectangle-Copy-6" x="231.96875" y="0" width="1" height="572"></rect>
                <rect id="Rectangle-Copy-6" x="249.8125" y="0" width="1" height="572"></rect>
                <rect id="Rectangle-Copy-6" x="267.65625" y="0" width="1" height="572"></rect>
                <rect id="Rectangle-Copy-6" x="285.5" y="0" width="1" height="572"></rect>
                <rect id="Rectangle-Copy-6" x="303.34375" y="0" width="1" height="572"></rect>
                <rect id="Rectangle-Copy-6" x="321.1875" y="0" width="1" height="572"></rect>
                <rect id="Rectangle-Copy-6" x="339.03125" y="0" width="1" height="572"></rect>
                <rect id="Rectangle-Copy-6" x="356.875" y="0" width="1" height="572"></rect>
                <rect id="Rectangle-Copy-6" x="374.71875" y="0" width="1" height="572"></rect>
                <rect id="Rectangle-Copy-6" x="392.5625" y="0" width="1" height="572"></rect>
                <rect id="Rectangle-Copy-6" x="410.40625" y="0" width="1" height="572"></rect>
                <rect id="Rectangle-Copy-6" x="428.25" y="0" width="1" height="572"></rect>
                <rect id="Rectangle-Copy-6" x="446.09375" y="0" width="1" height="572"></rect>
                <rect id="Rectangle-Copy-6" x="463.9375" y="0" width="1" height="572"></rect>
                <rect id="Rectangle-Copy-6" x="481.78125" y="0" width="1" height="572"></rect>
                <rect id="Rectangle-Copy-6" x="499.625" y="0" width="1" height="572"></rect>
                <rect id="Rectangle-Copy-6" x="517.46875" y="0" width="1" height="572"></rect>
                <rect id="Rectangle-Copy-6" x="535.3125" y="0" width="1" height="572"></rect>
                <rect id="Rectangle-Copy-6" x="553.15625" y="0" width="1" height="572"></rect>
                <rect id="Rectangle-Copy-7" x="571" y="9.09494702e-13" width="1" height="572"></rect>
                <rect id="Rectangle" x="0" y="0" width="572" height="1"></rect>
                <rect id="Rectangle" x="0" y="17.84375" width="572" height="1"></rect>
                <rect id="Rectangle" x="0" y="35.6875" width="572" height="1"></rect>
                <rect id="Rectangle" x="0" y="53.53125" width="572" height="1"></rect>
                <rect id="Rectangle" x="0" y="71.375" width="572" height="1"></rect>
                <rect id="Rectangle" x="0" y="89.21875" width="572" height="1"></rect>
                <rect id="Rectangle" x="0" y="107.0625" width="572" height="1"></rect>
                <rect id="Rectangle" x="0" y="124.90625" width="572" height="1"></rect>
                <rect id="Rectangle" x="0" y="267.65625" width="572" height="1"></rect>
                <rect id="Rectangle" x="0" y="249.8125" width="572" height="1"></rect>
                <rect id="Rectangle" x="0" y="231.96875" width="572" height="1"></rect>
                <rect id="Rectangle" x="0" y="214.125" width="572" height="1"></rect>
                <rect id="Rectangle" x="0" y="196.28125" width="572" height="1"></rect>
                <rect id="Rectangle" x="0" y="178.4375" width="572" height="1"></rect>
                <rect id="Rectangle" x="0" y="160.59375" width="572" height="1"></rect>
                <rect id="Rectangle" x="0" y="142.75" width="572" height="1"></rect>
                <rect id="Rectangle" x="0" y="428.25" width="572" height="1"></rect>
                <rect id="Rectangle" x="0" y="446.09375" width="572" height="1"></rect>
                <rect id="Rectangle" x="0" y="463.9375" width="572" height="1"></rect>
                <rect id="Rectangle" x="0" y="481.78125" width="572" height="1"></rect>
                <rect id="Rectangle" x="0" y="499.625" width="572" height="1"></rect>
                <rect id="Rectangle" x="0" y="517.46875" width="572" height="1"></rect>
                <rect id="Rectangle" x="0" y="535.3125" width="572" height="1"></rect>
                <rect id="Rectangle" x="0" y="553.15625" width="572" height="1"></rect>
                <rect id="Rectangle" x="0" y="571" width="572" height="1"></rect>
                <rect id="Rectangle" x="0" y="410.40625" width="572" height="1"></rect>
                <rect id="Rectangle" x="0" y="392.5625" width="572" height="1"></rect>
                <rect id="Rectangle" x="0" y="374.71875" width="572" height="1"></rect>
                <rect id="Rectangle" x="0" y="356.875" width="572" height="1"></rect>
                <rect id="Rectangle" x="0" y="339.03125" width="572" height="1"></rect>
                <rect id="Rectangle" x="0" y="321.1875" width="572" height="1"></rect>
                <rect id="Rectangle" x="0" y="303.34375" width="572" height="1"></rect>
                <rect id="Rectangle" x="0" y="285.5" width="572" height="1"></rect>
            </g>
            <g id="Skanska_Icon_Letter" transform="translate(36.000000, 125.000000)" fill="#143275">
                <polygon id="Fill-1" points="464.561978 142.8554 464.561978 285.725087 35.7550538 285.725087 35.7550538 142.8554 0.00178676997 142.8554 0.00178676997 321.460367 500.315245 321.460367 500.315245 142.8554"></polygon>
                <path d="M0,0 L0,80.774949 L250.147795,253.861575 L500.313459,80.774949 L500.313459,0 L0,0 Z M35.7532671,62.0768789 L35.7532671,35.7174217 L464.560191,35.7174217 L464.560191,62.0768789 L250.147795,210.447049 L35.7532671,62.0768789 Z" id="Fill-2"></path>
            </g>
        </g>
    </g>
</svg>