<?xml version="1.0" encoding="UTF-8"?>
<svg width="572px" height="572px" viewBox="0 0 572 572" version="1.1" xmlns="http://www.w3.org/2000/svg" xmlns:xlink="http://www.w3.org/1999/xlink">
    <title>portrait</title>
    <g id="Page-1" stroke="none" stroke-width="1" fill="none" fill-rule="evenodd">
        <g id="portrait" fill-rule="nonzero">
            <g id="Icons_Grid_BG" fill="#CCCCCC">
                <rect id="Rectangle-Copy-6" x="0" y="0" width="1" height="572"></rect>
                <rect id="Rectangle-Copy-6" x="17.84375" y="0" width="1" height="572"></rect>
                <rect id="Rectangle-Copy-6" x="35.6875" y="0" width="1" height="572"></rect>
                <rect id="Rectangle-Copy-6" x="53.53125" y="0" width="1" height="572"></rect>
                <rect id="Rectangle-Copy-6" x="71.375" y="0" width="1" height="572"></rect>
                <rect id="Rectangle-Copy-6" x="89.21875" y="0" width="1" height="572"></rect>
                <rect id="Rectangle-Copy-6" x="107.0625" y="0" width="1" height="572"></rect>
                <rect id="Rectangle-Copy-6" x="124.90625" y="0" width="1" height="572"></rect>
                <rect id="Rectangle-Copy-6" x="142.75" y="0" width="1" height="572"></rect>
                <rect id="Rectangle-Copy-6" x="160.59375" y="0" width="1" height="572"></rect>
                <rect id="Rectangle-Copy-6" x="178.4375" y="0" width="1" height="572"></rect>
                <rect id="Rectangle-Copy-6" x="196.28125" y="0" width="1" height="572"></rect>
                <rect id="Rectangle-Copy-6" x="214.125" y="0" width="1" height="572"></rect>
                <rect id="Rectangle-Copy-6" x="231.96875" y="0" width="1" height="572"></rect>
                <rect id="Rectangle-Copy-6" x="249.8125" y="0" width="1" height="572"></rect>
                <rect id="Rectangle-Copy-6" x="267.65625" y="0" width="1" height="572"></rect>
                <rect id="Rectangle-Copy-6" x="285.5" y="0" width="1" height="572"></rect>
                <rect id="Rectangle-Copy-6" x="303.34375" y="0" width="1" height="572"></rect>
                <rect id="Rectangle-Copy-6" x="321.1875" y="0" width="1" height="572"></rect>
                <rect id="Rectangle-Copy-6" x="339.03125" y="0" width="1" height="572"></rect>
                <rect id="Rectangle-Copy-6" x="356.875" y="0" width="1" height="572"></rect>
                <rect id="Rectangle-Copy-6" x="374.71875" y="0" width="1" height="572"></rect>
                <rect id="Rectangle-Copy-6" x="392.5625" y="0" width="1" height="572"></rect>
                <rect id="Rectangle-Copy-6" x="410.40625" y="0" width="1" height="572"></rect>
                <rect id="Rectangle-Copy-6" x="428.25" y="0" width="1" height="572"></rect>
                <rect id="Rectangle-Copy-6" x="446.09375" y="0" width="1" height="572"></rect>
                <rect id="Rectangle-Copy-6" x="463.9375" y="0" width="1" height="572"></rect>
                <rect id="Rectangle-Copy-6" x="481.78125" y="0" width="1" height="572"></rect>
                <rect id="Rectangle-Copy-6" x="499.625" y="0" width="1" height="572"></rect>
                <rect id="Rectangle-Copy-6" x="517.46875" y="0" width="1" height="572"></rect>
                <rect id="Rectangle-Copy-6" x="535.3125" y="0" width="1" height="572"></rect>
                <rect id="Rectangle-Copy-6" x="553.15625" y="0" width="1" height="572"></rect>
                <rect id="Rectangle-Copy-7" x="571" y="9.09494702e-13" width="1" height="572"></rect>
                <rect id="Rectangle" x="0" y="0" width="572" height="1"></rect>
                <rect id="Rectangle" x="0" y="17.84375" width="572" height="1"></rect>
                <rect id="Rectangle" x="0" y="35.6875" width="572" height="1"></rect>
                <rect id="Rectangle" x="0" y="53.53125" width="572" height="1"></rect>
                <rect id="Rectangle" x="0" y="71.375" width="572" height="1"></rect>
                <rect id="Rectangle" x="0" y="89.21875" width="572" height="1"></rect>
                <rect id="Rectangle" x="0" y="107.0625" width="572" height="1"></rect>
                <rect id="Rectangle" x="0" y="124.90625" width="572" height="1"></rect>
                <rect id="Rectangle" x="0" y="267.65625" width="572" height="1"></rect>
                <rect id="Rectangle" x="0" y="249.8125" width="572" height="1"></rect>
                <rect id="Rectangle" x="0" y="231.96875" width="572" height="1"></rect>
                <rect id="Rectangle" x="0" y="214.125" width="572" height="1"></rect>
                <rect id="Rectangle" x="0" y="196.28125" width="572" height="1"></rect>
                <rect id="Rectangle" x="0" y="178.4375" width="572" height="1"></rect>
                <rect id="Rectangle" x="0" y="160.59375" width="572" height="1"></rect>
                <rect id="Rectangle" x="0" y="142.75" width="572" height="1"></rect>
                <rect id="Rectangle" x="0" y="428.25" width="572" height="1"></rect>
                <rect id="Rectangle" x="0" y="446.09375" width="572" height="1"></rect>
                <rect id="Rectangle" x="0" y="463.9375" width="572" height="1"></rect>
                <rect id="Rectangle" x="0" y="481.78125" width="572" height="1"></rect>
                <rect id="Rectangle" x="0" y="499.625" width="572" height="1"></rect>
                <rect id="Rectangle" x="0" y="517.46875" width="572" height="1"></rect>
                <rect id="Rectangle" x="0" y="535.3125" width="572" height="1"></rect>
                <rect id="Rectangle" x="0" y="553.15625" width="572" height="1"></rect>
                <rect id="Rectangle" x="0" y="571" width="572" height="1"></rect>
                <rect id="Rectangle" x="0" y="410.40625" width="572" height="1"></rect>
                <rect id="Rectangle" x="0" y="392.5625" width="572" height="1"></rect>
                <rect id="Rectangle" x="0" y="374.71875" width="572" height="1"></rect>
                <rect id="Rectangle" x="0" y="356.875" width="572" height="1"></rect>
                <rect id="Rectangle" x="0" y="339.03125" width="572" height="1"></rect>
                <rect id="Rectangle" x="0" y="321.1875" width="572" height="1"></rect>
                <rect id="Rectangle" x="0" y="303.34375" width="572" height="1"></rect>
                <rect id="Rectangle" x="0" y="285.5" width="572" height="1"></rect>
            </g>
            <g id="Skanska_Icon_User" transform="translate(143.000000, 36.000000)" fill="#143275">
                <path d="M143,214.285714 C83.858775,214.285714 35.75,166.225 35.75,107.142857 C35.75,48.0607143 83.858775,0 143,0 C202.141225,0 250.25,48.0607143 250.25,107.142857 C250.25,166.225 202.141225,214.285714 143,214.285714 Z M143,35.7142857 C103.5749,35.7142857 71.5,67.7571429 71.5,107.142857 C71.5,146.528571 103.5749,178.571429 143,178.571429 C182.434037,178.571429 214.5,146.528571 214.5,107.142857 C214.5,67.7571429 182.434037,35.7142857 143,35.7142857 Z" id="Shape"></path>
                <path d="M286,500 L250.25,500 L250.25,375 C250.25,335.605357 218.184037,303.571429 178.75,303.571429 L107.25,303.571429 C67.8249,303.571429 35.75,335.605357 35.75,375 L35.75,500 L0,500 L0,375 C0,315.917857 48.108775,267.857143 107.25,267.857143 L178.75,267.857143 C237.891225,267.857143 286,315.917857 286,375 L286,500 Z" id="Path"></path>
            </g>
        </g>
    </g>
</svg>