<?xml version="1.0" encoding="UTF-8"?>
<svg width="80px" height="80px" viewBox="0 0 80 80" version="1.1" xmlns="http://www.w3.org/2000/svg" xmlns:xlink="http://www.w3.org/1999/xlink">
    <title>PlayBtn_Hover</title>
    <g id="Desktop" stroke="none" stroke-width="1" fill="none" fill-rule="evenodd">
        <g id="Skanska-Brand-Hub----Brand-Academy---Desktop" transform="translate(-1232.000000, -1031.000000)" fill="#FFFFFF" stroke="#FFFFFF" stroke-width="3">
            <g id="CLEARSPACE-Copy-2" transform="translate(49.000000, 554.000000)">
                <g id="Group-3" transform="translate(625.000000, 180.000999)">
                    <g id="PlayBtn_Hover" transform="translate(558.000000, 296.999001)">
                        <path d="M40,1.5 C50.6314814,1.5 60.2564814,5.80925928 67.2236111,12.7763889 C74.1907407,19.7435186 78.5,29.3685186 78.5,40 C78.5,50.6314814 74.1907407,60.2564814 67.2236111,67.2236111 C60.2564814,74.1907407 50.6314814,78.5 40,78.5 C29.3685186,78.5 19.7435186,74.1907407 12.7763889,67.2236111 C5.80925928,60.2564814 1.5,50.6314814 1.5,40 C1.5,29.3685186 5.80925928,19.7435186 12.7763889,12.7763889 C19.7435186,5.80925928 29.3685186,1.5 40,1.5 Z M32.4903168,19.6212131 L32.6076666,60.5943547 L54.18198,39.1612156 L32.4903168,19.6212131 Z" id="Combined-Shape"></path>
                    </g>
                </g>
            </g>
        </g>
    </g>
</svg>